"Contact Form",feedback_date,feedback_ip,email_marketing_consent,1_Name,"4_Roll Number","5_Subject Name"
"A new registration from your website",2022-12-10T00:52:49+05:30,223.187.104.207,,"Jai shree ram",12345,Physics
"A new registration from your website",2022-12-10T00:53:09+05:30,223.187.104.207,,"Parth Agarwal",42,COA
"A new registration from your website",2022-12-10T00:53:25+05:30,223.187.104.207,,Ashu,1425879,Chemistry
"A new registration from your website",2022-12-10T00:54:13+05:30,223.187.104.207,,Vasu,123456,Maths
"A new registration from your website",2022-12-10T00:54:35+05:30,223.187.104.207,,Shashank,1779,Physics
"A new registration from your website",2022-12-10T00:56:38+05:30,157.36.190.243,,Prateekshit,56789,Chem.
0